<?xml version="1.0" encoding="UTF-8" standalone="no"?>
<!-- Created with Inkscape (http://www.inkscape.org/) -->

<svg
   xmlns:dc="http://purl.org/dc/elements/1.1/"
   xmlns:cc="http://creativecommons.org/ns#"
   xmlns:rdf="http://www.w3.org/1999/02/22-rdf-syntax-ns#"
   xmlns:svg="http://www.w3.org/2000/svg"
   xmlns="http://www.w3.org/2000/svg"
   xmlns:sodipodi="http://sodipodi.sourceforge.net/DTD/sodipodi-0.dtd"
   xmlns:inkscape="http://www.inkscape.org/namespaces/inkscape"
   version="1.1"
   id="svg10"
   xml:space="preserve"
   width="273.10532"
   height="172.50667"
   viewBox="0 0 273.10532 172.50667"
   sodipodi:docname="title.svg"
   inkscape:version="0.92.4 5da689c313, 2019-01-14"><metadata
     id="metadata16"><rdf:RDF><cc:Work
         rdf:about=""><dc:format>image/svg+xml</dc:format><dc:type
           rdf:resource="http://purl.org/dc/dcmitype/StillImage" /><dc:title></dc:title></cc:Work></rdf:RDF></metadata><defs
     id="defs14"><clipPath
       clipPathUnits="userSpaceOnUse"
       id="clipPath26"><path
         d="M 0,129.38 H 204.829 V 0 H 0 Z"
         id="path24"
         inkscape:connector-curvature="0" /></clipPath><clipPath
       clipPathUnits="userSpaceOnUse"
       id="clipPath48"><path
         d="M 0,129.38 H 204.829 V 0 H 0 Z"
         id="path46"
         inkscape:connector-curvature="0" /></clipPath><clipPath
       clipPathUnits="userSpaceOnUse"
       id="clipPath74"><path
         d="M 0,129.38 H 204.829 V 0 H 0 Z"
         id="path72"
         inkscape:connector-curvature="0" /></clipPath></defs><sodipodi:namedview
     pagecolor="#ffffff"
     bordercolor="#666666"
     borderopacity="1"
     objecttolerance="10"
     gridtolerance="10"
     guidetolerance="10"
     inkscape:pageopacity="0"
     inkscape:pageshadow="2"
     inkscape:window-width="1858"
     inkscape:window-height="997"
     id="namedview12"
     showgrid="false"
     inkscape:zoom="2.328772"
     inkscape:cx="143.64475"
     inkscape:cy="86.253334"
     inkscape:window-x="29"
     inkscape:window-y="50"
     inkscape:window-maximized="0"
     inkscape:current-layer="g18" /><g
     id="g18"
     inkscape:groupmode="layer"
     inkscape:label="title"
     transform="matrix(1.3333333,0,0,-1.3333333,0,172.50667)"><g
   id="g20"
   transform="matrix(0.95556889,0,0,1.1254323,5.749349,91.14246)"><g
     id="g22"
     clip-path="url(#clipPath26)" /></g><text
   transform="scale(0.97273898,-1.028025)"
   style="font-style:normal;font-variant:normal;font-weight:bold;font-stretch:normal;font-size:55.4461174px;font-family:'Trebuchet MS';-inkscape-font-specification:'Trebuchet MS, Bold';font-variant-ligatures:normal;font-variant-caps:normal;font-variant-numeric:normal;font-feature-settings:normal;text-align:start;writing-mode:lr-tb;text-anchor:start;fill:#303030;fill-opacity:1;fill-rule:nonzero;stroke:none;stroke-width:0.97273898"
   id="text66"
   x="2.2881508"
   y="-5.1504321"><tspan
     sodipodi:role="line"
     id="tspan138"
     x="2.2881508"
     y="-5.1504321"
     style="font-style:normal;font-variant:normal;font-weight:bold;font-stretch:normal;font-size:32px;font-family:'Trebuchet MS';-inkscape-font-specification:'Trebuchet MS, Bold';font-variant-ligatures:normal;font-variant-caps:normal;font-variant-numeric:normal;font-feature-settings:normal;text-align:start;writing-mode:lr-tb;text-anchor:start;stroke-width:0.97273898">Belle Detector</tspan></text>

<text
   y="-34.261486"
   x="65.474762"
   id="text146"
   style="font-style:normal;font-variant:normal;font-weight:bold;font-stretch:normal;font-size:55.4461174px;font-family:'Trebuchet MS';-inkscape-font-specification:'Trebuchet MS, Bold';font-variant-ligatures:normal;font-variant-caps:normal;font-variant-numeric:normal;font-feature-settings:normal;text-align:start;writing-mode:lr-tb;text-anchor:start;fill:#303030;fill-opacity:1;fill-rule:nonzero;stroke:none;stroke-width:0.97273898"
   transform="scale(0.97273898,-1.028025)"><tspan
     style="font-style:normal;font-variant:normal;font-weight:bold;font-stretch:normal;font-size:32px;font-family:'Trebuchet MS';-inkscape-font-specification:'Trebuchet MS, Bold';font-variant-ligatures:normal;font-variant-caps:normal;font-variant-numeric:normal;font-feature-settings:normal;text-align:start;writing-mode:lr-tb;text-anchor:start;stroke-width:0.97273898"
     y="-34.261486"
     x="65.474762"
     id="tspan144"
     sodipodi:role="line">at the</tspan></text>

<text
   transform="scale(0.97273898,-1.028025)"
   style="font-style:normal;font-variant:normal;font-weight:bold;font-stretch:normal;font-size:55.4461174px;font-family:'Trebuchet MS';-inkscape-font-specification:'Trebuchet MS, Bold';font-variant-ligatures:normal;font-variant-caps:normal;font-variant-numeric:normal;font-feature-settings:normal;text-align:start;writing-mode:lr-tb;text-anchor:start;fill:#303030;fill-opacity:1;fill-rule:nonzero;stroke:none;stroke-width:0.97273898"
   id="text150"
   x="-4.3672938"
   y="-63.388287"><tspan
     sodipodi:role="line"
     x="-4.3672938"
     y="-63.388287"
     style="font-style:normal;font-variant:normal;font-weight:bold;font-stretch:normal;font-size:32px;font-family:'Trebuchet MS';-inkscape-font-specification:'Trebuchet MS, Bold';font-variant-ligatures:normal;font-variant-caps:normal;font-variant-numeric:normal;font-feature-settings:normal;text-align:start;writing-mode:lr-tb;text-anchor:start;stroke-width:0.97273898"
     id="tspan152">μ-Identification</tspan></text>

</g></svg>