<?xml version="1.0" standalone="no"?>
<svg width="567.429" height="385.492" viewBox="0 0 567.429 385.492" xmlns="http://www.w3.org/2000/svg">
<title>
/run/media/vidya/Everything/Academics/BTP/reports/18-10-23/ecledivp.svg
</title>
<desc>
Creator: ROOT Version 5.34/36
CreationDate: Tue Oct 23 14:28:54 2018</desc>
<defs>
</defs>
<rect x="0.5" y="0" width="566.929" height="384.992" fill="white"/>
<rect x="57.1929" y="38.4992" width="453.543" height="307.994" fill="white"/>
<rect x="57.1929" y="38.4992" width="453.543" height="307.994" fill="none" stroke="black"/>
<rect x="57.1929" y="38.4992" width="453.543" height="307.994" fill="white"/>
<rect x="57.1929" y="38.4992" width="453.543" height="307.994" fill="none" stroke="black"/>
<path d="M57.1929,343.562h 4.53543v -8.79368h 4.53543v -1.7042h 4.53543v -1.09069h 4.53543v 2.9994h 4.53543v -13.1564h 4.53543v -24.9495h 4.53543v -38.6513h 4.53543v -46.0816h 4.53543v -33.675h 4.53543v -34.6975h 4.53543v -22.7681h 4.53543v -25.4949h
 4.53543v -19.7006h 4.53543v -14.4516h 4.53543v -8.18019h 4.53543v 7.63483h 4.53543v 11.5886h 4.53543v 4.77175h 4.53543v 16.4285h 4.53543v 2.31773h 4.53543v 11.9294h 4.53543v 10.2934h 4.53543v 6.95315h 4.53543v 17.6555h 4.53543v 5.93062h 4.53543v
 12.1339h 4.53543v 12.7474h 4.53543v 4.56726h 4.53543v 15.2015h 4.53543v 5.79428h 4.53543v 11.5886h 4.53543v 8.52101h 4.53543v 3.88557h 4.53543v 15.5423h 4.53543v 5.93063h 4.53543v 6.95314h 4.53543v 6.06696h 4.53543v 9.8162h 4.53543v 8.79368h
 4.53543v 5.58978h 4.53543v 8.58918h 4.53543v 5.18077h 4.53543v 2.9994h 4.53543v 8.112h 4.53543v 5.45344h 4.53543v 3.47657h 4.53543v 3.81741h 4.53543v 2.79489h 4.53543v 4.43092h 4.53543v 3.68108h 4.53543v 2.11321h 4.53543v 0.886185h 4.53543v
 0.886185h 4.53543v 1.84054h 4.53543v 1.84054h 4.53543v 0.34084h 4.53543v 0.681681h 4.53543v 0.272673h 4.53543v 1.77237h 4.53543v 0.545345h 4.53543v 0.0681679h 4.53543v 1.22703h 4.53543v -1.29519h 4.53543v 2.04504h 4.53543v 0.818017h 4.53543v
 -0.749849h 4.53543v 0.204504h 4.53543v 0.749849h 4.53543v -0.681681h 4.53543v 1.15886h 4.53543v -0.681681h 4.53543v 0.409008h 9.07087v 0.749849h 13.6063v -0.613513h 4.53543v 0.749849h 4.53543v -0.477176h 4.53543v -0.0681681h 4.53543v 0.272672h
 4.53543v 0.136336h 9.07087v 0.477177h 4.53543v -0.204504h 4.53543v 0.136336h 4.53543v -0.613513h 4.53543v 0.613513h 4.53543v -0.136336h 9.07087v -0.272672h 4.53543v -0.204504h 4.53543v 0.749849h 4.53543v -0.681681h 4.53543v 0.681681h 4.53543v
 -0.409008h 4.53543v 0.409008h 4.53543v -0.136336h 4.53543v 0.34084h 4.53543" fill="none" stroke="#ff0000" stroke-width="3"/>
<path d="M57.1929,346.493h 453.543" fill="none" stroke="black"/>
<path d="M57.1929,337.253v 9.23981" fill="none" stroke="black"/>
<path d="M66.2638,341.873v 4.6199" fill="none" stroke="black"/>
<path d="M75.3346,341.873v 4.6199" fill="none" stroke="black"/>
<path d="M84.4055,341.873v 4.6199" fill="none" stroke="black"/>
<path d="M93.4764,341.873v 4.6199" fill="none" stroke="black"/>
<path d="M102.547,337.253v 9.23981" fill="none" stroke="black"/>
<path d="M111.618,341.873v 4.6199" fill="none" stroke="black"/>
<path d="M120.689,341.873v 4.6199" fill="none" stroke="black"/>
<path d="M129.76,341.873v 4.6199" fill="none" stroke="black"/>
<path d="M138.831,341.873v 4.6199" fill="none" stroke="black"/>
<path d="M147.902,337.253v 9.23981" fill="none" stroke="black"/>
<path d="M156.972,341.873v 4.6199" fill="none" stroke="black"/>
<path d="M166.043,341.873v 4.6199" fill="none" stroke="black"/>
<path d="M175.114,341.873v 4.6199" fill="none" stroke="black"/>
<path d="M184.185,341.873v 4.6199" fill="none" stroke="black"/>
<path d="M193.256,337.253v 9.23981" fill="none" stroke="black"/>
<path d="M202.327,341.873v 4.6199" fill="none" stroke="black"/>
<path d="M211.398,341.873v 4.6199" fill="none" stroke="black"/>
<path d="M220.469,341.873v 4.6199" fill="none" stroke="black"/>
<path d="M229.539,341.873v 4.6199" fill="none" stroke="black"/>
<path d="M238.61,337.253v 9.23981" fill="none" stroke="black"/>
<path d="M247.681,341.873v 4.6199" fill="none" stroke="black"/>
<path d="M256.752,341.873v 4.6199" fill="none" stroke="black"/>
<path d="M265.823,341.873v 4.6199" fill="none" stroke="black"/>
<path d="M274.894,341.873v 4.6199" fill="none" stroke="black"/>
<path d="M283.965,337.253v 9.23981" fill="none" stroke="black"/>
<path d="M293.035,341.873v 4.6199" fill="none" stroke="black"/>
<path d="M302.106,341.873v 4.6199" fill="none" stroke="black"/>
<path d="M311.177,341.873v 4.6199" fill="none" stroke="black"/>
<path d="M320.248,341.873v 4.6199" fill="none" stroke="black"/>
<path d="M329.319,337.253v 9.23981" fill="none" stroke="black"/>
<path d="M338.39,341.873v 4.6199" fill="none" stroke="black"/>
<path d="M347.461,341.873v 4.6199" fill="none" stroke="black"/>
<path d="M356.531,341.873v 4.6199" fill="none" stroke="black"/>
<path d="M365.602,341.873v 4.6199" fill="none" stroke="black"/>
<path d="M374.673,337.253v 9.23981" fill="none" stroke="black"/>
<path d="M383.744,341.873v 4.6199" fill="none" stroke="black"/>
<path d="M392.815,341.873v 4.6199" fill="none" stroke="black"/>
<path d="M401.886,341.873v 4.6199" fill="none" stroke="black"/>
<path d="M410.957,341.873v 4.6199" fill="none" stroke="black"/>
<path d="M420.028,337.253v 9.23981" fill="none" stroke="black"/>
<path d="M429.098,341.873v 4.6199" fill="none" stroke="black"/>
<path d="M438.169,341.873v 4.6199" fill="none" stroke="black"/>
<path d="M447.24,341.873v 4.6199" fill="none" stroke="black"/>
<path d="M456.311,341.873v 4.6199" fill="none" stroke="black"/>
<path d="M465.382,337.253v 9.23981" fill="none" stroke="black"/>
<path d="M474.453,341.873v 4.6199" fill="none" stroke="black"/>
<path d="M483.524,341.873v 4.6199" fill="none" stroke="black"/>
<path d="M492.594,341.873v 4.6199" fill="none" stroke="black"/>
<path d="M501.665,341.873v 4.6199" fill="none" stroke="black"/>
<path d="M510.736,337.253v 9.23981" fill="none" stroke="black"/>
<text x="53.2943" y="359.001" fill="black" font-size="12.8621" font-family="Helvetica">
0
</text>
<text x="94.7174" y="359.001" fill="black" font-size="12.8621" font-family="Helvetica">
0.1
</text>
<text x="138.577" y="359.001" fill="black" font-size="12.8621" font-family="Helvetica">
0.2
</text>
<text x="184.062" y="359.001" fill="black" font-size="12.8621" font-family="Helvetica">
0.3
</text>
<text x="229.546" y="359.001" fill="black" font-size="12.8621" font-family="Helvetica">
0.4
</text>
<text x="275.03" y="359.001" fill="black" font-size="12.8621" font-family="Helvetica">
0.5
</text>
<text x="319.702" y="359.001" fill="black" font-size="12.8621" font-family="Helvetica">
0.6
</text>
<text x="365.186" y="359.001" fill="black" font-size="12.8621" font-family="Helvetica">
0.7
</text>
<text x="410.671" y="359.001" fill="black" font-size="12.8621" font-family="Helvetica">
0.8
</text>
<text x="456.155" y="359.001" fill="black" font-size="12.8621" font-family="Helvetica">
0.9
</text>
<text x="508.137" y="359.001" fill="black" font-size="12.8621" font-family="Helvetica">
1
</text>
<path d="M57.1929,346.493v -307.994" fill="none" stroke="black"/>
<path d="M70.7992,346.493h -13.6063" fill="none" stroke="black"/>
<path d="M63.9961,339.704h -6.80315" fill="none" stroke="black"/>
<path d="M63.9961,332.916h -6.80315" fill="none" stroke="black"/>
<path d="M63.9961,326.127h -6.80315" fill="none" stroke="black"/>
<path d="M63.9961,319.339h -6.80315" fill="none" stroke="black"/>
<path d="M70.7992,312.551h -13.6063" fill="none" stroke="black"/>
<path d="M63.9961,305.762h -6.80315" fill="none" stroke="black"/>
<path d="M63.9961,298.974h -6.80315" fill="none" stroke="black"/>
<path d="M63.9961,292.185h -6.80315" fill="none" stroke="black"/>
<path d="M63.9961,285.397h -6.80315" fill="none" stroke="black"/>
<path d="M70.7992,278.608h -13.6063" fill="none" stroke="black"/>
<path d="M63.9961,271.82h -6.80315" fill="none" stroke="black"/>
<path d="M63.9961,265.031h -6.80315" fill="none" stroke="black"/>
<path d="M63.9961,258.243h -6.80315" fill="none" stroke="black"/>
<path d="M63.9961,251.454h -6.80315" fill="none" stroke="black"/>
<path d="M70.7992,244.666h -13.6063" fill="none" stroke="black"/>
<path d="M63.9961,237.878h -6.80315" fill="none" stroke="black"/>
<path d="M63.9961,231.089h -6.80315" fill="none" stroke="black"/>
<path d="M63.9961,224.301h -6.80315" fill="none" stroke="black"/>
<path d="M63.9961,217.512h -6.80315" fill="none" stroke="black"/>
<path d="M70.7992,210.724h -13.6063" fill="none" stroke="black"/>
<path d="M63.9961,203.935h -6.80315" fill="none" stroke="black"/>
<path d="M63.9961,197.147h -6.80315" fill="none" stroke="black"/>
<path d="M63.9961,190.358h -6.80315" fill="none" stroke="black"/>
<path d="M63.9961,183.57h -6.80315" fill="none" stroke="black"/>
<path d="M70.7992,176.782h -13.6063" fill="none" stroke="black"/>
<path d="M63.9961,169.993h -6.80315" fill="none" stroke="black"/>
<path d="M63.9961,163.205h -6.80315" fill="none" stroke="black"/>
<path d="M63.9961,156.416h -6.80315" fill="none" stroke="black"/>
<path d="M63.9961,149.628h -6.80315" fill="none" stroke="black"/>
<path d="M70.7992,142.839h -13.6063" fill="none" stroke="black"/>
<path d="M63.9961,136.051h -6.80315" fill="none" stroke="black"/>
<path d="M63.9961,129.262h -6.80315" fill="none" stroke="black"/>
<path d="M63.9961,122.474h -6.80315" fill="none" stroke="black"/>
<path d="M63.9961,115.686h -6.80315" fill="none" stroke="black"/>
<path d="M70.7992,108.897h -13.6063" fill="none" stroke="black"/>
<path d="M63.9961,102.109h -6.80315" fill="none" stroke="black"/>
<path d="M63.9961,95.3202h -6.80315" fill="none" stroke="black"/>
<path d="M63.9961,88.5317h -6.80315" fill="none" stroke="black"/>
<path d="M63.9961,81.7433h -6.80315" fill="none" stroke="black"/>
<path d="M70.7992,74.9548h -13.6063" fill="none" stroke="black"/>
<path d="M63.9961,68.1664h -6.80315" fill="none" stroke="black"/>
<path d="M63.9961,61.3779h -6.80315" fill="none" stroke="black"/>
<path d="M63.9961,54.5895h -6.80315" fill="none" stroke="black"/>
<path d="M63.9961,47.801h -6.80315" fill="none" stroke="black"/>
<path d="M70.7992,41.0126h -13.6063" fill="none" stroke="black"/>
<path d="M70.7992,41.0126h -13.6063" fill="none" stroke="black"/>
<text x="47.6087" y="350.879" fill="black" font-size="12.8621" font-family="Helvetica">
0
</text>
<text x="24.0544" y="316.766" fill="black" font-size="12.8621" font-family="Helvetica">
0.005
</text>
<text x="32.1766" y="283.465" fill="black" font-size="12.8621" font-family="Helvetica">
0.01
</text>
<text x="24.0544" y="249.351" fill="black" font-size="12.8621" font-family="Helvetica">
0.015
</text>
<text x="30.5521" y="215.238" fill="black" font-size="12.8621" font-family="Helvetica">
0.02
</text>
<text x="24.0544" y="181.125" fill="black" font-size="12.8621" font-family="Helvetica">
0.025
</text>
<text x="30.5521" y="147.012" fill="black" font-size="12.8621" font-family="Helvetica">
0.03
</text>
<text x="24.0544" y="113.711" fill="black" font-size="12.8621" font-family="Helvetica">
0.035
</text>
<text x="30.5521" y="79.5975" fill="black" font-size="12.8621" font-family="Helvetica">
0.04
</text>
<text x="24.0544" y="45.4843" fill="black" font-size="12.8621" font-family="Helvetica">
0.045
</text>
<path d="M57.1929,343.119h 4.53543v -29.9533h 4.53543v -23.7561h 4.53543v -12.119h 4.53543v 6.33495h 4.53543v 7.2301h 4.53543v 0.619725h 4.53543v 1.99689h 4.53543v -5.30208h 4.53543v -5.99066h 4.53543v -5.30208h 4.53543v -5.99065h 4.53543v -9.15814h
 4.53543v -8.19412h 4.53543v -11.2239h 4.53543v -4.95779h 4.53543v -8.74498h 4.53543v -2.75433h 4.53543v -1.17059h 4.53543v -2.34117h 4.53543v -4.54464h 4.53543v -3.99377h 4.53543v -0.550869h 4.53543v -2.06574h 4.53543v -0.275435h 4.53543v -1.3083h
 4.53543v 4.68235h 4.53543v 2.89204h 4.53543v 1.3083h 4.53543v 7.02354h 4.53543v -1.79032h 4.53543v 6.61039h 4.53543v 0.826291h 4.53543v 6.33496h 4.53543v 7.2301h 4.53543v 3.58062h 4.53543v 5.71523h 4.53543v 6.95467h 4.53543v 3.02975h 4.53543v
 -0.757436h 4.53543v 3.09862h 4.53543v 4.95778h 4.53543v 3.30519h 4.53543v 4.13149h 4.53543v -1.03288h 4.53543v 4.20035h 4.53543v 2.89204h 4.53543v 2.06575h 4.53543v 2.06574h 4.53543v -3.16747h 4.53543v 6.12838h 4.53543v -3.92492h 4.53543v 0.206579h
 4.53543v -0.206579h 4.53543v -2.75432h 4.53543v 7.29896h 4.53543v -2.75433h 4.53543v 2.27232h 4.53543v -0.619718h 4.53543v -4.13149h 4.53543v 1.3083h 4.53543v 2.06575h 4.53543v -0.68858h 4.53543v 5.43979h 4.53543v -5.02665h 4.53543v -0.34429h
 4.53543v 0.964015h 4.53543v 3.23633h 4.53543v -0.688583h 4.53543v 2.4789h 4.53543v -2.1346h 4.53543v 3.99377h 4.53543v -0.550866h 4.53543v 3.16748h 4.53543v 3.02976h 4.53543v -1.65259h 4.53543v 4.95779h 4.53543v -0.619725h 4.53543v -1.23945h
 4.53543v 4.82007h 4.53543v -0.964015h 4.53543v -0.0688586h 4.53543v 2.34118h 4.53543v -3.64948h 4.53543v 0.619725h 4.53543v -1.44602h 4.53543v 0.0688586h 4.53543v -3.92491h 4.53543v 3.44291h 4.53543v 0.275435h 4.53543v -0.964015h 4.53543v -0.757442h
 4.53543v 3.09862h 4.53543v -4.88893h 4.53543v 6.12838h 4.53543v 1.17059h 4.53543v 5.71523h 4.53543v 7.23011h 4.53543v 7.5744h 4.53543v 5.99066h 4.53543" fill="none" stroke="#00ffff" stroke-width="3"/></svg>
