<?xml version="1.0" standalone="no"?>
<svg width="567.429" height="385.492" viewBox="0 0 567.429 385.492" xmlns="http://www.w3.org/2000/svg">
<title>
/run/media/vidya/Everything/Academics/BTP/reports/18-10-23/idacc.svg
</title>
<desc>
Creator: ROOT Version 5.34/36
CreationDate: Tue Oct 23 14:32:38 2018</desc>
<defs>
</defs>
<rect x="0.5" y="0" width="566.929" height="384.992" fill="white"/>
<rect x="57.1929" y="38.4992" width="453.543" height="307.994" fill="white"/>
<rect x="57.1929" y="38.4992" width="453.543" height="307.994" fill="none" stroke="black"/>
<rect x="57.1929" y="38.4992" width="453.543" height="307.994" fill="white"/>
<rect x="57.1929" y="38.4992" width="453.543" height="307.994" fill="none" stroke="black"/>
<path d="M57.1929,140.639h 4.53543v 54.9762h 4.53543v 8.13723h 4.53543v 8.86612h 4.53543v 30.1213h 4.53543v -25.2681h 4.53543v 38.8882h 4.53543v 6.90863h 4.53543v -7.61636h 4.53543v 25.5914h 4.53543v 16.1866h 4.53543v -3.01333h 4.53543v 3.36057h
 4.53543v 16.5837h 4.53543v -11.8157h 4.53543v 5.31526h 4.53543v -2.11706h 4.53543v -0.82047h 4.53543v -7.49297h 9.07087v -6.14666h 4.53543v 2.81029h 4.53543v -1.58225h 4.53543v 5.96823h 4.53543v 4.45355h 4.53543v 0.391187h 4.53543v -1.92374h
 4.53543v 4.34284h 4.53543v -5.4599h 4.53543v 4.63943h 4.53543v -1.59863h 4.53543v -5.89434h 4.53543v -0.686762h 4.53543v -5.76189h 4.53543v 2.47288h 4.53543v -2.47288h 4.53543v 7.49825h 4.53543v -13.9508h 4.53543v 15.7548h 4.53543v -4.88404h
 4.53543v -1.62668h 4.53543v -2.79148h 4.53543v 0.605961h 4.53543v -6.79588h 4.53543v 4.41816h 4.53543v -10.1116h 4.53543v 3.1317h 4.53543v 4.71819h 4.53543v -4.4683h 4.53543v 1.27009h 4.53543v -1.76855h 4.53543v 0.248558h 4.53543v -4.28201h 4.53543v
 -0.22668h 4.53543v -3.69302h 4.53543v -4.38017h 4.53543v 9.68373h 4.53543v -10.2502h 4.53543v 6.43184h 4.53543v -8.27159h 4.53543v 4.34606h 4.53543v -3.80177h 4.53543v -0.544298h 4.53543v 1.65245h 4.53543v -1.83247h 4.53543v -6.8367h 4.53543v
 4.5579h 4.53543v 1.38903h 4.53543v -7.77099h 4.53543v 4.20995h 4.53543v -7.23891h 4.53543v 0.139834h 4.53543v -0.27925h 4.53543v 1.84595h 4.53543v -8.20955h 4.53543v -10.9707h 4.53543v -5.58742h 4.53543v 2.52991h 4.53543v -4.68636h 4.53543v
 -3.58558h 4.53543v 0.376569h 4.53543v 0.993644h 4.53543v -2.40862h 4.53543v 0.146928h 4.53543v -3.06065h 4.53543v 0.484678h 4.53543v -13.7514h 4.53543v -9.29749h 4.53543v -1.66316h 4.53543v -9.42826h 4.53543v -10.1636h 4.53543v -13.9075h 4.53543v
 -3.47495h 4.53543v -7.75661h 4.53543v -31.2594h 4.53543v -1.67395h 4.53543v -26.7406h 4.53543v -14.3625h 4.53543v -11.4983h 4.53543v 114.117h 4.53543" fill="none" stroke="#ff0000" stroke-width="3"/>
<path d="M57.1929,346.493h 453.543" fill="none" stroke="black"/>
<path d="M57.1929,337.253v 9.23981" fill="none" stroke="black"/>
<path d="M66.2638,341.873v 4.6199" fill="none" stroke="black"/>
<path d="M75.3346,341.873v 4.6199" fill="none" stroke="black"/>
<path d="M84.4055,341.873v 4.6199" fill="none" stroke="black"/>
<path d="M93.4764,341.873v 4.6199" fill="none" stroke="black"/>
<path d="M102.547,337.253v 9.23981" fill="none" stroke="black"/>
<path d="M111.618,341.873v 4.6199" fill="none" stroke="black"/>
<path d="M120.689,341.873v 4.6199" fill="none" stroke="black"/>
<path d="M129.76,341.873v 4.6199" fill="none" stroke="black"/>
<path d="M138.831,341.873v 4.6199" fill="none" stroke="black"/>
<path d="M147.902,337.253v 9.23981" fill="none" stroke="black"/>
<path d="M156.972,341.873v 4.6199" fill="none" stroke="black"/>
<path d="M166.043,341.873v 4.6199" fill="none" stroke="black"/>
<path d="M175.114,341.873v 4.6199" fill="none" stroke="black"/>
<path d="M184.185,341.873v 4.6199" fill="none" stroke="black"/>
<path d="M193.256,337.253v 9.23981" fill="none" stroke="black"/>
<path d="M202.327,341.873v 4.6199" fill="none" stroke="black"/>
<path d="M211.398,341.873v 4.6199" fill="none" stroke="black"/>
<path d="M220.469,341.873v 4.6199" fill="none" stroke="black"/>
<path d="M229.539,341.873v 4.6199" fill="none" stroke="black"/>
<path d="M238.61,337.253v 9.23981" fill="none" stroke="black"/>
<path d="M247.681,341.873v 4.6199" fill="none" stroke="black"/>
<path d="M256.752,341.873v 4.6199" fill="none" stroke="black"/>
<path d="M265.823,341.873v 4.6199" fill="none" stroke="black"/>
<path d="M274.894,341.873v 4.6199" fill="none" stroke="black"/>
<path d="M283.965,337.253v 9.23981" fill="none" stroke="black"/>
<path d="M293.035,341.873v 4.6199" fill="none" stroke="black"/>
<path d="M302.106,341.873v 4.6199" fill="none" stroke="black"/>
<path d="M311.177,341.873v 4.6199" fill="none" stroke="black"/>
<path d="M320.248,341.873v 4.6199" fill="none" stroke="black"/>
<path d="M329.319,337.253v 9.23981" fill="none" stroke="black"/>
<path d="M338.39,341.873v 4.6199" fill="none" stroke="black"/>
<path d="M347.461,341.873v 4.6199" fill="none" stroke="black"/>
<path d="M356.531,341.873v 4.6199" fill="none" stroke="black"/>
<path d="M365.602,341.873v 4.6199" fill="none" stroke="black"/>
<path d="M374.673,337.253v 9.23981" fill="none" stroke="black"/>
<path d="M383.744,341.873v 4.6199" fill="none" stroke="black"/>
<path d="M392.815,341.873v 4.6199" fill="none" stroke="black"/>
<path d="M401.886,341.873v 4.6199" fill="none" stroke="black"/>
<path d="M410.957,341.873v 4.6199" fill="none" stroke="black"/>
<path d="M420.028,337.253v 9.23981" fill="none" stroke="black"/>
<path d="M429.098,341.873v 4.6199" fill="none" stroke="black"/>
<path d="M438.169,341.873v 4.6199" fill="none" stroke="black"/>
<path d="M447.24,341.873v 4.6199" fill="none" stroke="black"/>
<path d="M456.311,341.873v 4.6199" fill="none" stroke="black"/>
<path d="M465.382,337.253v 9.23981" fill="none" stroke="black"/>
<path d="M474.453,341.873v 4.6199" fill="none" stroke="black"/>
<path d="M483.524,341.873v 4.6199" fill="none" stroke="black"/>
<path d="M492.594,341.873v 4.6199" fill="none" stroke="black"/>
<path d="M501.665,341.873v 4.6199" fill="none" stroke="black"/>
<path d="M510.736,337.253v 9.23981" fill="none" stroke="black"/>
<text x="53.2943" y="359.001" fill="black" font-size="12.8621" font-family="Helvetica">
0
</text>
<text x="94.7174" y="359.001" fill="black" font-size="12.8621" font-family="Helvetica">
0.1
</text>
<text x="138.577" y="359.001" fill="black" font-size="12.8621" font-family="Helvetica">
0.2
</text>
<text x="184.062" y="359.001" fill="black" font-size="12.8621" font-family="Helvetica">
0.3
</text>
<text x="229.546" y="359.001" fill="black" font-size="12.8621" font-family="Helvetica">
0.4
</text>
<text x="275.03" y="359.001" fill="black" font-size="12.8621" font-family="Helvetica">
0.5
</text>
<text x="319.702" y="359.001" fill="black" font-size="12.8621" font-family="Helvetica">
0.6
</text>
<text x="365.186" y="359.001" fill="black" font-size="12.8621" font-family="Helvetica">
0.7
</text>
<text x="410.671" y="359.001" fill="black" font-size="12.8621" font-family="Helvetica">
0.8
</text>
<text x="456.155" y="359.001" fill="black" font-size="12.8621" font-family="Helvetica">
0.9
</text>
<text x="508.137" y="359.001" fill="black" font-size="12.8621" font-family="Helvetica">
1
</text>
<path d="M57.1929,346.493v -307.994" fill="none" stroke="black"/>
<path d="M63.9961,343.129h -6.80315" fill="none" stroke="black"/>
<path d="M63.9961,334.677h -6.80315" fill="none" stroke="black"/>
<path d="M63.9961,327.531h -6.80315" fill="none" stroke="black"/>
<path d="M63.9961,321.341h -6.80315" fill="none" stroke="black"/>
<path d="M63.9961,315.882h -6.80315" fill="none" stroke="black"/>
<path d="M70.7992,310.997h -13.6063" fill="none" stroke="black"/>
<text x="47.6087" y="310.268" fill="black" font-size="8.74142" font-family="Helvetica">
3
</text>
<text x="42.7354" y="310.268" fill="black" font-size="8.74142" font-family="Times">
&#8722;
</text>
<text x="29.7399" y="315.953" fill="black" font-size="12.8621" font-family="Helvetica">
10
</text>
<path d="M63.9961,278.866h -6.80315" fill="none" stroke="black"/>
<path d="M63.9961,260.071h -6.80315" fill="none" stroke="black"/>
<path d="M63.9961,246.735h -6.80315" fill="none" stroke="black"/>
<path d="M63.9961,236.391h -6.80315" fill="none" stroke="black"/>
<path d="M63.9961,227.94h -6.80315" fill="none" stroke="black"/>
<path d="M63.9961,220.794h -6.80315" fill="none" stroke="black"/>
<path d="M63.9961,214.604h -6.80315" fill="none" stroke="black"/>
<path d="M63.9961,209.144h -6.80315" fill="none" stroke="black"/>
<path d="M70.7992,204.26h -13.6063" fill="none" stroke="black"/>
<text x="47.6087" y="204.679" fill="black" font-size="8.74142" font-family="Helvetica">
2
</text>
<text x="42.7354" y="204.679" fill="black" font-size="8.74142" font-family="Times">
&#8722;
</text>
<text x="29.7399" y="209.553" fill="black" font-size="12.8621" font-family="Helvetica">
10
</text>
<path d="M63.9961,172.129h -6.80315" fill="none" stroke="black"/>
<path d="M63.9961,153.333h -6.80315" fill="none" stroke="black"/>
<path d="M63.9961,139.998h -6.80315" fill="none" stroke="black"/>
<path d="M63.9961,129.654h -6.80315" fill="none" stroke="black"/>
<path d="M63.9961,121.202h -6.80315" fill="none" stroke="black"/>
<path d="M63.9961,114.056h -6.80315" fill="none" stroke="black"/>
<path d="M63.9961,107.866h -6.80315" fill="none" stroke="black"/>
<path d="M63.9961,102.406h -6.80315" fill="none" stroke="black"/>
<path d="M70.7992,97.5224h -13.6063" fill="none" stroke="black"/>
<text x="49.2332" y="98.2785" fill="black" font-size="8.74142" font-family="Helvetica">
1
</text>
<text x="44.3598" y="98.2785" fill="black" font-size="8.74142" font-family="Times">
&#8722;
</text>
<text x="31.3643" y="103.152" fill="black" font-size="12.8621" font-family="Helvetica">
10
</text>
<path d="M63.9961,65.3912h -6.80315" fill="none" stroke="black"/>
<path d="M63.9961,46.5957h -6.80315" fill="none" stroke="black"/>
<path d="M57.1929,147.613h 4.53543v 10.2621h 4.53543v 12.6142h 4.53543v 14.3306h 4.53543v 31.2557h 4.53543v -32.9611h 4.53543v 38.6158h 4.53543v -0.403679h 4.53543v 1.77525h 4.53543v 12.9199h 4.53543v 1.02294h 4.53543v -3.6163h 4.53543v 0.261652h
 4.53543v 9.37027h 4.53543v 6.2971h 4.53543v -4.88404h 4.53543v -1.62668h 4.53543v -4.46657h 4.53543v -1.989h 4.53543v -0.826981h 4.53543v 4.69218h 4.53543v -0.301335h 4.53543v -0.990543h 4.53543v -1.35213h 4.53543v 8.54689h 4.53543v 8.6581h 4.53543v
 7.95759h 4.53543v -11.4126h 4.53543v 11.2491h 4.53543v -2.69493h 4.53543v 6.08005h 4.53543v 3.8423h 4.53543v -9.14585h 4.53543v 3.24297h 4.53543v -4.9344h 4.53543v 8.42143h 4.53543v -3.82172h 4.53543v 4.55174h 4.53543v 4.43655h 4.53543v -5.52732h
 4.53543v -7.29948h 4.53543v 6.23379h 4.53543v 2.71162h 4.53543v 0.37384h 4.53543v -2.01977h 4.53543v -0.889767h 4.53543v 0.710445h 4.53543v 3.14709h 4.53543v -3.50368h 4.53543v 3.31252h 4.53543v 1.15895h 4.53543v -2.84479h 4.53543v -0.366447h
 4.53543v 1.4835h 4.53543v -0.188052h 4.53543v 1.91579h 4.53543v -2.47542h 4.53543v -0.552955h 4.53543v 4.62014h 4.53543v -3.13068h 4.53543v 5.83986h 4.53543v -5.26874h 4.53543v 3.17085h 4.53543v -3.362h 4.53543v -2.23443h 4.53543v -2.13166h 4.53543v
 6.11557h 4.53543v 1.20411h 4.53543v -4.45511h 4.53543v 5.69133h 4.53543v -3.4204h 4.53543v -0.769405h 4.53543v -2.77661h 4.53543v 1.64593h 4.53543v -4.43507h 4.53543v 1.54819h 4.53543v -2.55232h 4.53543v -5.3125h 4.53543v -0.440785h 4.53543v
 7.78378h 4.53543v -8.22041h 4.53543v -4.28627h 4.53543v 3.14163h 4.53543v -8.14438h 4.53543v -4.08283h 4.53543v -4.34902h 4.53543v -3.33637h 4.53543v -12.7106h 4.53543v -3.17489h 4.53543v -7.18303h 4.53543v -15.5734h 4.53543v -24.9488h 4.53543v
 -2.80617h 4.53543v -4.25617h 4.53543v -44.8645h 4.53543v 18.2019h 4.53543v -27.1004h 4.53543v -26.5758h 4.53543v -15.1266h 4.53543v 89.1105h 4.53543" fill="none" stroke="#00ffff" stroke-width="3"/></svg>
